<?xml version="1.0" encoding="UTF-8" standalone="no"?>
<!-- Created with Inkscape (http://www.inkscape.org/) -->

<svg
   width="9054.2471"
   height="7354.272"
   viewBox="0 0 2395.6028 1945.8179"
   version="1.1"
   id="svg1122"
   inkscape:version="1.1.2 (0a00cf5339, 2022-02-04)"
   sodipodi:docname="dynamic_5.svg"
   xmlns:inkscape="http://www.inkscape.org/namespaces/inkscape"
   xmlns:sodipodi="http://sodipodi.sourceforge.net/DTD/sodipodi-0.dtd"
   xmlns:xlink="http://www.w3.org/1999/xlink"
   xmlns="http://www.w3.org/2000/svg"
   xmlns:svg="http://www.w3.org/2000/svg">
  <sodipodi:namedview
     id="namedview1124"
     pagecolor="#505050"
     bordercolor="#eeeeee"
     borderopacity="1"
     inkscape:pageshadow="0"
     inkscape:pageopacity="0"
     inkscape:pagecheckerboard="true"
     inkscape:document-units="mm"
     showgrid="false"
     inkscape:zoom="0.04"
     inkscape:cx="9175"
     inkscape:cy="6012.5"
     inkscape:window-width="1876"
     inkscape:window-height="1015"
     inkscape:window-x="44"
     inkscape:window-y="41"
     inkscape:window-maximized="1"
     inkscape:current-layer="layer1"
     width="1000mm"
     units="px"
     height="1000px"
     fit-margin-top="0"
     fit-margin-left="0"
     fit-margin-right="0"
     fit-margin-bottom="0" />
  <defs
     id="defs1119">
    <radialGradient
       inkscape:collect="always"
       xlink:href="#linearGradient3058"
       id="radialGradient2894"
       cx="123.51945"
       cy="101.47012"
       fx="123.51945"
       fy="101.47012"
       r="70.094109"
       gradientTransform="matrix(0.23493163,-0.9720119,1.9335264,0.46732607,-101.69434,174.11286)"
       gradientUnits="userSpaceOnUse" />
    <linearGradient
       inkscape:collect="always"
       id="linearGradient3058">
      <stop
         style="stop-color:#4ae500;stop-opacity:1"
         offset="0"
         id="stop3054" />
      <stop
         style="stop-color:#79ff52;stop-opacity:1"
         offset="1"
         id="stop3056" />
    </linearGradient>
    <radialGradient
       inkscape:collect="always"
       xlink:href="#linearGradient5523"
       id="radialGradient5101"
       cx="159.67831"
       cy="68.388161"
       fx="159.67831"
       fy="68.388161"
       r="26.418713"
       gradientTransform="matrix(1,0,0,1.1452259,0,-10.194027)"
       gradientUnits="userSpaceOnUse" />
    <linearGradient
       inkscape:collect="always"
       id="linearGradient5523">
      <stop
         style="stop-color:#ffffff;stop-opacity:1"
         offset="0"
         id="stop5519" />
      <stop
         style="stop-color:#ffffff;stop-opacity:0"
         offset="1"
         id="stop5521" />
    </linearGradient>
    <radialGradient
       inkscape:collect="always"
       xlink:href="#linearGradient3996"
       id="radialGradient3772"
       cx="212.50693"
       cy="105.25766"
       fx="212.50693"
       fy="105.25766"
       r="70.094109"
       gradientTransform="matrix(1,0,0,1.1802913,14.660764,-19.005001)"
       gradientUnits="userSpaceOnUse" />
    <linearGradient
       inkscape:collect="always"
       id="linearGradient3996">
      <stop
         style="stop-color:#1400e5;stop-opacity:1"
         offset="0"
         id="stop3992" />
      <stop
         style="stop-color:#5257ff;stop-opacity:1"
         offset="1"
         id="stop3994" />
    </linearGradient>
    <radialGradient
       inkscape:collect="always"
       xlink:href="#linearGradient5523"
       id="radialGradient5099"
       cx="247.1555"
       cy="73.273178"
       fx="247.1555"
       fy="73.273178"
       r="27.63842"
       gradientTransform="matrix(1,0,0,1.0380637,6.0033361,-4.9602483)"
       gradientUnits="userSpaceOnUse" />
    <radialGradient
       inkscape:collect="always"
       xlink:href="#linearGradient2516"
       id="radialGradient2518"
       cx="44.314697"
       cy="97.509712"
       fx="44.314697"
       fy="97.509712"
       r="70.094109"
       gradientTransform="matrix(-1.981596,-1.5190286,0.87882727,-1.1464435,46.434331,276.61438)"
       gradientUnits="userSpaceOnUse" />
    <linearGradient
       inkscape:collect="always"
       id="linearGradient2516">
      <stop
         style="stop-color:#e50000;stop-opacity:1;"
         offset="0"
         id="stop2512" />
      <stop
         style="stop-color:#ff5252;stop-opacity:1"
         offset="1"
         id="stop2514" />
    </linearGradient>
    <radialGradient
       inkscape:collect="always"
       xlink:href="#linearGradient5523"
       id="radialGradient5103"
       cx="57.841557"
       cy="56.417072"
       fx="57.841557"
       fy="56.417072"
       r="26.244118"
       gradientTransform="matrix(1,0,0,1.1233072,0,-7.079853)"
       gradientUnits="userSpaceOnUse" />
    <radialGradient
       inkscape:collect="always"
       xlink:href="#linearGradient2516"
       id="radialGradient2518-3"
       cx="44.314697"
       cy="97.509712"
       fx="44.314697"
       fy="97.509712"
       r="70.094109"
       gradientTransform="matrix(-1.981596,-1.5190286,0.87882727,-1.1464435,46.434331,276.61438)"
       gradientUnits="userSpaceOnUse" />
    <radialGradient
       inkscape:collect="always"
       xlink:href="#linearGradient5523"
       id="radialGradient5103-5"
       cx="57.841557"
       cy="56.417072"
       fx="57.841557"
       fy="56.417072"
       r="26.244118"
       gradientTransform="matrix(1,0,0,1.1233072,0,-7.079853)"
       gradientUnits="userSpaceOnUse" />
    <radialGradient
       inkscape:collect="always"
       xlink:href="#linearGradient3996"
       id="radialGradient3772-6"
       cx="212.50693"
       cy="105.25766"
       fx="212.50693"
       fy="105.25766"
       r="70.094109"
       gradientTransform="matrix(1,0,0,1.1802913,14.660764,-19.005001)"
       gradientUnits="userSpaceOnUse" />
    <radialGradient
       inkscape:collect="always"
       xlink:href="#linearGradient5523"
       id="radialGradient5099-1"
       cx="247.1555"
       cy="73.273178"
       fx="247.1555"
       fy="73.273178"
       r="27.63842"
       gradientTransform="matrix(1,0,0,1.0380637,6.0033361,-4.9602483)"
       gradientUnits="userSpaceOnUse" />
    <radialGradient
       inkscape:collect="always"
       xlink:href="#linearGradient3058"
       id="radialGradient2894-2"
       cx="123.51945"
       cy="101.47012"
       fx="123.51945"
       fy="101.47012"
       r="70.094109"
       gradientTransform="matrix(0.23493163,-0.9720119,1.9335264,0.46732607,-101.69434,174.11286)"
       gradientUnits="userSpaceOnUse" />
    <radialGradient
       inkscape:collect="always"
       xlink:href="#linearGradient5523"
       id="radialGradient5101-9"
       cx="159.67831"
       cy="68.388161"
       fx="159.67831"
       fy="68.388161"
       r="26.418713"
       gradientTransform="matrix(1,0,0,1.1452259,0,-10.194027)"
       gradientUnits="userSpaceOnUse" />
  </defs>
  <g
     inkscape:label="Layer 1"
     inkscape:groupmode="layer"
     id="layer1"
     transform="translate(1228.887,1760.2935)">
    <g
       id="g2084">
      <g
         id="g26"
         transform="translate(-608.35235,-114.47566)">
        <rect
           style="fill:#6363ba;fill-opacity:1;stroke:#424296;stroke-width:7.38171;stroke-miterlimit:4;stroke-dasharray:none;stroke-opacity:1"
           id="rect1057"
           width="292.66376"
           height="292.61829"
           x="3.690855"
           y="3.690855" />
        <path
           id="path4751-3"
           style="fill:#424296;fill-opacity:1;stroke:none;stroke-width:0;stroke-linecap:butt;stroke-linejoin:miter;stroke-miterlimit:4;stroke-dasharray:none;stroke-opacity:1"
           d="m 295.14645,156.73605 v 8.29703 c -20.86692,1.69923 -39.68793,16.13373 -39.73941,23.95003 0.27708,8.80644 18.73448,18.59005 39.73941,18.4504 v 6.91202 c -23.62156,0.18966 -44.37787,-13.10303 -44.68984,-25.06856 0.0601,-10.62035 21.22349,-30.23219 44.68984,-32.54092 z" />
        <path
           style="fill:none;fill-opacity:1;stroke:#424296;stroke-width:5.78852;stroke-linecap:butt;stroke-linejoin:miter;stroke-miterlimit:4;stroke-dasharray:none;stroke-opacity:1"
           d="M 5.3272338,65.772088 C 101.79751,71.207318 199.57715,75.500538 294.51773,102.55421"
           id="path9404"
           sodipodi:nodetypes="cc" />
        <path
           id="path19101"
           style="fill:#424296;fill-opacity:1;stroke:none;stroke-width:6.90166;stroke-linecap:butt;stroke-linejoin:miter;stroke-miterlimit:4;stroke-dasharray:none;stroke-opacity:1"
           d="M 3.5958638,75.406758 4.1377438,212.715 C 99.724844,246.35459 228.32979,188.78897 222.98233,167.30279 215.16855,135.90714 93.188124,86.415248 3.5957838,75.406758 Z"
           sodipodi:nodetypes="ccsc" />
        <path
           id="path19101-6"
           style="fill:#6363ba;fill-opacity:1;stroke:none;stroke-width:6.08573;stroke-linecap:butt;stroke-linejoin:miter;stroke-miterlimit:4;stroke-dasharray:none;stroke-opacity:1"
           d="M 6.7395371,89.557008 7.2427868,204.54338 C 95.990954,232.71425 215.39486,184.50693 210.43003,166.51369 203.17529,140.22207 89.921949,98.775858 6.7395371,89.557008 Z"
           sodipodi:nodetypes="ccsc" />
        <path
           id="path4751"
           style="fill:#424296;fill-opacity:1;stroke:none;stroke-width:0;stroke-linecap:butt;stroke-linejoin:miter;stroke-miterlimit:4;stroke-dasharray:none;stroke-opacity:1"
           d="m 4.0937038,107.03217 v 12.77309 c 49.5119702,2.61602 94.1700202,24.83787 94.2919902,36.87091 -0.65822,13.55747 -44.45217,28.61916 -94.2919902,28.40415 v 10.64114 C 60.142124,196.01369 109.39167,175.54939 110.13185,157.12845 109.99464,140.77874 59.773554,110.58641 4.0937038,107.03217 Z" />
        <path
           style="fill:none;stroke:#424296;stroke-width:5.78852;stroke-linecap:butt;stroke-linejoin:miter;stroke-miterlimit:4;stroke-dasharray:none;stroke-opacity:1"
           d="M 4.9646738,30.202388 C 100.45905,13.383448 200.13846,21.757118 294.8956,52.908928"
           id="path9406"
           sodipodi:nodetypes="cc" />
        <path
           style="fill:none;stroke:#424296;stroke-width:5.78852;stroke-linecap:butt;stroke-linejoin:miter;stroke-miterlimit:4;stroke-dasharray:none;stroke-opacity:1"
           d="M 4.3334338,239.03012 C 78.665524,261.6318 162.05882,234.2652 293.3521,242.65822"
           id="path9408"
           sodipodi:nodetypes="cc" />
        <path
           style="fill:none;stroke:#424296;stroke-width:5.78852;stroke-linecap:butt;stroke-linejoin:miter;stroke-miterlimit:4;stroke-dasharray:none;stroke-opacity:1"
           d="M 6.0880138,262.18262 C 169.98367,281.6019 230.66264,275.99644 294.3335,271.11637"
           id="path9410"
           sodipodi:nodetypes="cc" />
      </g>
      <g
         id="g26-3"
         transform="translate(-308.30691,-114.47566)">
        <rect
           style="fill:#6363ba;fill-opacity:1;stroke:#424296;stroke-width:7.38171;stroke-miterlimit:4;stroke-dasharray:none;stroke-opacity:1"
           id="rect1057-6"
           width="292.66376"
           height="292.61829"
           x="3.690855"
           y="3.690855" />
        <path
           id="path4751-3-7"
           style="fill:#424296;fill-opacity:1;stroke:none;stroke-width:0;stroke-linecap:butt;stroke-linejoin:miter;stroke-miterlimit:4;stroke-dasharray:none;stroke-opacity:1"
           d="m 295.14645,156.73605 v 8.29703 c -20.86692,1.69923 -39.68793,16.13373 -39.73941,23.95003 0.27708,8.80644 18.73448,18.59005 39.73941,18.4504 v 6.91202 c -23.62156,0.18966 -44.37787,-13.10303 -44.68984,-25.06856 0.0601,-10.62035 21.22349,-30.23219 44.68984,-32.54092 z" />
        <path
           style="fill:none;fill-opacity:1;stroke:#424296;stroke-width:5.78852;stroke-linecap:butt;stroke-linejoin:miter;stroke-miterlimit:4;stroke-dasharray:none;stroke-opacity:1"
           d="M 5.3272338,65.772088 C 101.79751,71.207318 199.57715,75.500538 294.51773,102.55421"
           id="path9404-5"
           sodipodi:nodetypes="cc" />
        <path
           id="path19101-3"
           style="fill:#424296;fill-opacity:1;stroke:none;stroke-width:6.90166;stroke-linecap:butt;stroke-linejoin:miter;stroke-miterlimit:4;stroke-dasharray:none;stroke-opacity:1"
           d="M 3.5958638,75.406758 4.1377438,212.715 C 99.724844,246.35459 228.32979,188.78897 222.98233,167.30279 215.16855,135.90714 93.188124,86.415248 3.5957838,75.406758 Z"
           sodipodi:nodetypes="ccsc" />
        <path
           id="path19101-6-5"
           style="fill:#6363ba;fill-opacity:1;stroke:none;stroke-width:6.08573;stroke-linecap:butt;stroke-linejoin:miter;stroke-miterlimit:4;stroke-dasharray:none;stroke-opacity:1"
           d="M 6.7395371,89.557008 7.2427868,204.54338 C 95.990954,232.71425 215.39486,184.50693 210.43003,166.51369 203.17529,140.22207 89.921949,98.775858 6.7395371,89.557008 Z"
           sodipodi:nodetypes="ccsc" />
        <path
           id="path4751-6"
           style="fill:#424296;fill-opacity:1;stroke:none;stroke-width:0;stroke-linecap:butt;stroke-linejoin:miter;stroke-miterlimit:4;stroke-dasharray:none;stroke-opacity:1"
           d="m 4.0937038,107.03217 v 12.77309 c 49.5119702,2.61602 94.1700202,24.83787 94.2919902,36.87091 -0.65822,13.55747 -44.45217,28.61916 -94.2919902,28.40415 v 10.64114 C 60.142124,196.01369 109.39167,175.54939 110.13185,157.12845 109.99464,140.77874 59.773554,110.58641 4.0937038,107.03217 Z" />
        <path
           style="fill:none;stroke:#424296;stroke-width:5.78852;stroke-linecap:butt;stroke-linejoin:miter;stroke-miterlimit:4;stroke-dasharray:none;stroke-opacity:1"
           d="M 4.9646738,30.202388 C 100.45905,13.383448 200.13846,21.757118 294.8956,52.908928"
           id="path9406-2"
           sodipodi:nodetypes="cc" />
        <path
           style="fill:none;stroke:#424296;stroke-width:5.78852;stroke-linecap:butt;stroke-linejoin:miter;stroke-miterlimit:4;stroke-dasharray:none;stroke-opacity:1"
           d="M 4.3334338,239.03012 C 78.665524,261.6318 162.05882,234.2652 293.3521,242.65822"
           id="path9408-9"
           sodipodi:nodetypes="cc" />
        <path
           style="fill:none;stroke:#424296;stroke-width:5.78852;stroke-linecap:butt;stroke-linejoin:miter;stroke-miterlimit:4;stroke-dasharray:none;stroke-opacity:1"
           d="M 6.0880138,262.18262 C 169.98367,281.6019 230.66264,275.99644 294.3335,271.11637"
           id="path9410-1"
           sodipodi:nodetypes="cc" />
      </g>
      <g
         id="g26-2"
         transform="translate(-8.26148,-114.47566)">
        <rect
           style="fill:#6363ba;fill-opacity:1;stroke:#424296;stroke-width:7.38171;stroke-miterlimit:4;stroke-dasharray:none;stroke-opacity:1"
           id="rect1057-7"
           width="292.66376"
           height="292.61829"
           x="3.690855"
           y="3.690855" />
        <path
           id="path4751-3-0"
           style="fill:#424296;fill-opacity:1;stroke:none;stroke-width:0;stroke-linecap:butt;stroke-linejoin:miter;stroke-miterlimit:4;stroke-dasharray:none;stroke-opacity:1"
           d="m 295.14645,156.73605 v 8.29703 c -20.86692,1.69923 -39.68793,16.13373 -39.73941,23.95003 0.27708,8.80644 18.73448,18.59005 39.73941,18.4504 v 6.91202 c -23.62156,0.18966 -44.37787,-13.10303 -44.68984,-25.06856 0.0601,-10.62035 21.22349,-30.23219 44.68984,-32.54092 z" />
        <path
           style="fill:none;fill-opacity:1;stroke:#424296;stroke-width:5.78852;stroke-linecap:butt;stroke-linejoin:miter;stroke-miterlimit:4;stroke-dasharray:none;stroke-opacity:1"
           d="M 5.3272338,65.772088 C 101.79751,71.207318 199.57715,75.500538 294.51773,102.55421"
           id="path9404-9"
           sodipodi:nodetypes="cc" />
        <path
           id="path19101-36"
           style="fill:#424296;fill-opacity:1;stroke:none;stroke-width:6.90166;stroke-linecap:butt;stroke-linejoin:miter;stroke-miterlimit:4;stroke-dasharray:none;stroke-opacity:1"
           d="M 3.5958638,75.406758 4.1377438,212.715 C 99.724844,246.35459 228.32979,188.78897 222.98233,167.30279 215.16855,135.90714 93.188124,86.415248 3.5957838,75.406758 Z"
           sodipodi:nodetypes="ccsc" />
        <path
           id="path19101-6-0"
           style="fill:#6363ba;fill-opacity:1;stroke:none;stroke-width:6.08573;stroke-linecap:butt;stroke-linejoin:miter;stroke-miterlimit:4;stroke-dasharray:none;stroke-opacity:1"
           d="M 6.7395371,89.557008 7.2427868,204.54338 C 95.990954,232.71425 215.39486,184.50693 210.43003,166.51369 203.17529,140.22207 89.921949,98.775858 6.7395371,89.557008 Z"
           sodipodi:nodetypes="ccsc" />
        <path
           id="path4751-62"
           style="fill:#424296;fill-opacity:1;stroke:none;stroke-width:0;stroke-linecap:butt;stroke-linejoin:miter;stroke-miterlimit:4;stroke-dasharray:none;stroke-opacity:1"
           d="m 4.0937038,107.03217 v 12.77309 c 49.5119702,2.61602 94.1700202,24.83787 94.2919902,36.87091 -0.65822,13.55747 -44.45217,28.61916 -94.2919902,28.40415 v 10.64114 C 60.142124,196.01369 109.39167,175.54939 110.13185,157.12845 109.99464,140.77874 59.773554,110.58641 4.0937038,107.03217 Z" />
        <path
           style="fill:none;stroke:#424296;stroke-width:5.78852;stroke-linecap:butt;stroke-linejoin:miter;stroke-miterlimit:4;stroke-dasharray:none;stroke-opacity:1"
           d="M 4.9646738,30.202388 C 100.45905,13.383448 200.13846,21.757118 294.8956,52.908928"
           id="path9406-6"
           sodipodi:nodetypes="cc" />
        <path
           style="fill:none;stroke:#424296;stroke-width:5.78852;stroke-linecap:butt;stroke-linejoin:miter;stroke-miterlimit:4;stroke-dasharray:none;stroke-opacity:1"
           d="M 4.3334338,239.03012 C 78.665524,261.6318 162.05882,234.2652 293.3521,242.65822"
           id="path9408-1"
           sodipodi:nodetypes="cc" />
        <path
           style="fill:none;stroke:#424296;stroke-width:5.78852;stroke-linecap:butt;stroke-linejoin:miter;stroke-miterlimit:4;stroke-dasharray:none;stroke-opacity:1"
           d="M 6.0880138,262.18262 C 169.98367,281.6019 230.66264,275.99644 294.3335,271.11637"
           id="path9410-8"
           sodipodi:nodetypes="cc" />
      </g>
      <g
         id="g26-3-7"
         transform="translate(291.78394,-114.47566)">
        <rect
           style="fill:#6363ba;fill-opacity:1;stroke:#424296;stroke-width:7.38171;stroke-miterlimit:4;stroke-dasharray:none;stroke-opacity:1"
           id="rect1057-6-9"
           width="292.66376"
           height="292.61829"
           x="3.690855"
           y="3.690855" />
        <path
           id="path4751-3-7-2"
           style="fill:#424296;fill-opacity:1;stroke:none;stroke-width:0;stroke-linecap:butt;stroke-linejoin:miter;stroke-miterlimit:4;stroke-dasharray:none;stroke-opacity:1"
           d="m 295.14645,156.73605 v 8.29703 c -20.86692,1.69923 -39.68793,16.13373 -39.73941,23.95003 0.27708,8.80644 18.73448,18.59005 39.73941,18.4504 v 6.91202 c -23.62156,0.18966 -44.37787,-13.10303 -44.68984,-25.06856 0.0601,-10.62035 21.22349,-30.23219 44.68984,-32.54092 z" />
        <path
           style="fill:none;fill-opacity:1;stroke:#424296;stroke-width:5.78852;stroke-linecap:butt;stroke-linejoin:miter;stroke-miterlimit:4;stroke-dasharray:none;stroke-opacity:1"
           d="M 5.3272338,65.772088 C 101.79751,71.207318 199.57715,75.500538 294.51773,102.55421"
           id="path9404-5-0"
           sodipodi:nodetypes="cc" />
        <path
           id="path19101-3-2"
           style="fill:#424296;fill-opacity:1;stroke:none;stroke-width:6.90166;stroke-linecap:butt;stroke-linejoin:miter;stroke-miterlimit:4;stroke-dasharray:none;stroke-opacity:1"
           d="M 3.5958638,75.406758 4.1377438,212.715 C 99.724844,246.35459 228.32979,188.78897 222.98233,167.30279 215.16855,135.90714 93.188124,86.415248 3.5957838,75.406758 Z"
           sodipodi:nodetypes="ccsc" />
        <path
           id="path19101-6-5-3"
           style="fill:#6363ba;fill-opacity:1;stroke:none;stroke-width:6.08573;stroke-linecap:butt;stroke-linejoin:miter;stroke-miterlimit:4;stroke-dasharray:none;stroke-opacity:1"
           d="M 6.7395371,89.557008 7.2427868,204.54338 C 95.990954,232.71425 215.39486,184.50693 210.43003,166.51369 203.17529,140.22207 89.921949,98.775858 6.7395371,89.557008 Z"
           sodipodi:nodetypes="ccsc" />
        <path
           id="path4751-6-7"
           style="fill:#424296;fill-opacity:1;stroke:none;stroke-width:0;stroke-linecap:butt;stroke-linejoin:miter;stroke-miterlimit:4;stroke-dasharray:none;stroke-opacity:1"
           d="m 4.0937038,107.03217 v 12.77309 c 49.5119702,2.61602 94.1700202,24.83787 94.2919902,36.87091 -0.65822,13.55747 -44.45217,28.61916 -94.2919902,28.40415 v 10.64114 C 60.142124,196.01369 109.39167,175.54939 110.13185,157.12845 109.99464,140.77874 59.773554,110.58641 4.0937038,107.03217 Z" />
        <path
           style="fill:none;stroke:#424296;stroke-width:5.78852;stroke-linecap:butt;stroke-linejoin:miter;stroke-miterlimit:4;stroke-dasharray:none;stroke-opacity:1"
           d="M 4.9646738,30.202388 C 100.45905,13.383448 200.13846,21.757118 294.8956,52.908928"
           id="path9406-2-5"
           sodipodi:nodetypes="cc" />
        <path
           style="fill:none;stroke:#424296;stroke-width:5.78852;stroke-linecap:butt;stroke-linejoin:miter;stroke-miterlimit:4;stroke-dasharray:none;stroke-opacity:1"
           d="M 4.3334338,239.03012 C 78.665524,261.6318 162.05882,234.2652 293.3521,242.65822"
           id="path9408-9-9"
           sodipodi:nodetypes="cc" />
        <path
           style="fill:none;stroke:#424296;stroke-width:5.78852;stroke-linecap:butt;stroke-linejoin:miter;stroke-miterlimit:4;stroke-dasharray:none;stroke-opacity:1"
           d="M 6.0880138,262.18262 C 169.98367,281.6019 230.66264,275.99644 294.3335,271.11637"
           id="path9410-1-2"
           sodipodi:nodetypes="cc" />
      </g>
    </g>
    <g
       id="g2359"
       transform="matrix(4.3437168,0,0,4.3437168,416.00205,2594.3501)">
      <path
         style="fill:none;stroke:#ffffff;stroke-width:1.22105;stroke-linecap:butt;stroke-linejoin:miter;stroke-miterlimit:4;stroke-dasharray:none;stroke-opacity:1"
         d="M -197.27188,-623.5607 -298.1716,-887.4704"
         id="path1766"
         sodipodi:nodetypes="cc" />
      <path
         style="fill:none;stroke:#000000;stroke-width:6.61458;stroke-linecap:butt;stroke-linejoin:miter;stroke-miterlimit:4;stroke-dasharray:none;stroke-opacity:1"
         d="M -108.77858,-886.04235 Z"
         id="path1877" />
      <path
         style="fill:none;stroke:#ffffff;stroke-width:1.22105;stroke-linecap:butt;stroke-linejoin:miter;stroke-miterlimit:4;stroke-dasharray:none;stroke-opacity:1"
         d="m -197.27188,-623.5607 -6.93479,-268.11955"
         id="path1879" />
      <path
         style="fill:none;stroke:#ffffff;stroke-width:1.22105;stroke-linecap:butt;stroke-linejoin:miter;stroke-miterlimit:4;stroke-dasharray:none;stroke-opacity:1"
         d="m -197.27188,-623.5607 88.4933,-262.48165"
         id="path1881"
         sodipodi:nodetypes="cc" />
      <g
         id="g6421"
         transform="rotate(-12.001352,-4953.0651,1262.5237)">
        <ellipse
           style="fill:url(#radialGradient2518);fill-opacity:1;stroke:#ffffff;stroke-width:1.63698;stroke-linejoin:round;stroke-miterlimit:4;stroke-dasharray:none;stroke-opacity:1;paint-order:fill markers stroke"
           id="path2231"
           ry="82.731468"
           rx="70.094109"
           cy="97.509712"
           cx="44.314697" />
        <path
           style="fill:url(#radialGradient5103);fill-opacity:1;stroke:none;stroke-width:0.264583px;stroke-linecap:butt;stroke-linejoin:miter;stroke-opacity:1"
           d="m 30.275329,29.031287 c 22.81932,-6.23991 38.94388,15.676824 47.213294,28.080943 1.652323,2.478484 1.655995,6.783874 2.251938,9.763585 0.324397,1.621989 3.040147,12.762005 1.870887,13.47203 -1.575927,0.956972 -1.175073,0.07148 -2.247498,1.928747 -0.276021,0.478028 -0.436287,1.934109 -0.750409,2.24632 -1.443246,1.43446 -6.229482,1.735082 -8.301945,2.085142 C 51.300411,89.819212 40.522175,65.473828 35.093706,51.02076 32.448859,43.978964 27.392849,36.022618 30.275329,29.031287 Z"
           id="path4969" />
      </g>
      <g
         id="g6429"
         transform="rotate(14.137545,4162.2809,-1733.8118)">
        <ellipse
           style="fill:url(#radialGradient3772);fill-opacity:1;stroke:#ffffff;stroke-width:1.63698;stroke-linejoin:round;stroke-miterlimit:4;stroke-dasharray:none;stroke-opacity:1;paint-order:fill markers stroke"
           id="path2231-3-6"
           ry="82.731468"
           rx="70.094109"
           cy="105.22971"
           cx="227.16769" />
        <path
           style="fill:url(#radialGradient5099);fill-opacity:1;stroke:none;stroke-width:0.264583px;stroke-linecap:butt;stroke-linejoin:miter;stroke-opacity:1"
           d="m 223.21363,55.150963 c 2.51526,3.036594 5.49022,6.507919 8.76664,9.077134 2.37992,1.866218 4.66393,4.155649 7.03383,5.928093 2.08889,1.562282 3.87462,1.468205 5.73621,3.807455 1.7985,2.25997 3.59726,6.110388 4.68663,8.737049 1.14685,2.76524 3.71133,4.922507 5.22197,7.433426 1.76034,2.925948 2.36854,6.801504 5.11096,8.876909 3.51035,2.656551 5.76101,3.839011 10.02097,3.839011 0.13808,0 1.48996,0.078 1.52896,0 1.65103,-3.302131 4.43077,-7.63158 5.04966,-12.012279 1.84753,-13.077531 -10.02088,-36.477233 -21.70065,-42.194704 -3.84199,-1.880727 -21.58316,-4.383175 -26.14702,-2.430042 -1.84836,0.79102 -5.31635,2.325087 -6.44648,4.016034 -0.75183,1.124905 -1.73681,6.532009 1.13832,4.921914 z"
           id="path4965" />
      </g>
      <g
         id="g6425"
         transform="translate(-329.56355,-1020.4357)">
        <ellipse
           style="fill:url(#radialGradient2894);fill-opacity:1;stroke:#fefefe;stroke-width:1.63698;stroke-linejoin:round;stroke-miterlimit:4;stroke-dasharray:none;stroke-opacity:1;paint-order:fill markers stroke"
           id="path2231-3"
           ry="82.731468"
           rx="70.094109"
           cy="101.47012"
           cx="123.51945" />
        <path
           style="fill:url(#radialGradient5101);fill-opacity:1;stroke:none;stroke-width:0.264583px;stroke-linecap:butt;stroke-linejoin:miter;stroke-opacity:1"
           d="m 129.97802,47.804009 c 0.87952,1.245814 1.57469,2.644843 2.63857,3.737445 4.39608,4.514771 7.44905,8.168955 11.01068,13.365798 3.49911,5.105609 5.87634,11.142853 9.72769,15.85678 1.46027,1.787327 16.09646,18.493558 16.30654,18.564371 1.49627,0.504364 5.55393,1.736647 7.10468,0.748357 3.71356,-2.366652 7.21254,-25.367312 5.67994,-28.695652 -0.30429,-0.660818 -1.06174,-1.052001 -1.33605,-1.725818 -0.76312,-1.874555 1.73212,-3.04132 1.23209,-4.717971 -0.14361,-0.481547 -0.95017,-0.456655 -1.22672,-0.876215 -0.90666,-1.375508 -0.87485,-3.833707 -1.55819,-5.41238 -3.31768,-7.664617 -7.20977,-15.29891 -16.01899,-16.258 -7.21704,-0.785744 -24.33145,-5.993705 -29.44154,1.696005 -0.89434,1.345801 -3.4545,1.251715 -4.1187,3.71728 z"
           id="path4967" />
      </g>
    </g>
    <g
       id="g2359-3"
       transform="matrix(4.2507151,0,0,4.2507151,1298.8567,2534.4429)">
      <path
         style="fill:none;stroke:#ffffff;stroke-width:1.22105;stroke-linecap:butt;stroke-linejoin:miter;stroke-miterlimit:4;stroke-dasharray:none;stroke-opacity:1"
         d="M -197.27188,-623.5607 -298.1716,-887.4704"
         id="path1766-6"
         sodipodi:nodetypes="cc" />
      <path
         style="fill:none;stroke:#000000;stroke-width:6.61458;stroke-linecap:butt;stroke-linejoin:miter;stroke-miterlimit:4;stroke-dasharray:none;stroke-opacity:1"
         d="M -108.77858,-886.04235 Z"
         id="path1877-0" />
      <path
         style="fill:none;stroke:#ffffff;stroke-width:1.22105;stroke-linecap:butt;stroke-linejoin:miter;stroke-miterlimit:4;stroke-dasharray:none;stroke-opacity:1"
         d="m -197.27188,-623.5607 -6.93479,-268.11955"
         id="path1879-6" />
      <path
         style="fill:none;stroke:#ffffff;stroke-width:1.22105;stroke-linecap:butt;stroke-linejoin:miter;stroke-miterlimit:4;stroke-dasharray:none;stroke-opacity:1"
         d="m -197.27188,-623.5607 88.4933,-262.48165"
         id="path1881-2"
         sodipodi:nodetypes="cc" />
      <g
         id="g6421-6"
         transform="rotate(-12.001352,-4953.0651,1262.5237)">
        <ellipse
           style="fill:url(#radialGradient2518-3);fill-opacity:1;stroke:#ffffff;stroke-width:1.63698;stroke-linejoin:round;stroke-miterlimit:4;stroke-dasharray:none;stroke-opacity:1;paint-order:fill markers stroke"
           id="path2231-1"
           ry="82.731468"
           rx="70.094109"
           cy="97.509712"
           cx="44.314697" />
        <path
           style="fill:url(#radialGradient5103-5);fill-opacity:1;stroke:none;stroke-width:0.264583px;stroke-linecap:butt;stroke-linejoin:miter;stroke-opacity:1"
           d="m 30.275329,29.031287 c 22.81932,-6.23991 38.94388,15.676824 47.213294,28.080943 1.652323,2.478484 1.655995,6.783874 2.251938,9.763585 0.324397,1.621989 3.040147,12.762005 1.870887,13.47203 -1.575927,0.956972 -1.175073,0.07148 -2.247498,1.928747 -0.276021,0.478028 -0.436287,1.934109 -0.750409,2.24632 -1.443246,1.43446 -6.229482,1.735082 -8.301945,2.085142 C 51.300411,89.819212 40.522175,65.473828 35.093706,51.02076 32.448859,43.978964 27.392849,36.022618 30.275329,29.031287 Z"
           id="path4969-8" />
      </g>
      <g
         id="g6429-7"
         transform="rotate(14.137545,4162.2809,-1733.8118)">
        <ellipse
           style="fill:url(#radialGradient3772-6);fill-opacity:1;stroke:#ffffff;stroke-width:1.63698;stroke-linejoin:round;stroke-miterlimit:4;stroke-dasharray:none;stroke-opacity:1;paint-order:fill markers stroke"
           id="path2231-3-6-9"
           ry="82.731468"
           rx="70.094109"
           cy="105.22971"
           cx="227.16769" />
        <path
           style="fill:url(#radialGradient5099-1);fill-opacity:1;stroke:none;stroke-width:0.264583px;stroke-linecap:butt;stroke-linejoin:miter;stroke-opacity:1"
           d="m 223.21363,55.150963 c 2.51526,3.036594 5.49022,6.507919 8.76664,9.077134 2.37992,1.866218 4.66393,4.155649 7.03383,5.928093 2.08889,1.562282 3.87462,1.468205 5.73621,3.807455 1.7985,2.25997 3.59726,6.110388 4.68663,8.737049 1.14685,2.76524 3.71133,4.922507 5.22197,7.433426 1.76034,2.925948 2.36854,6.801504 5.11096,8.876909 3.51035,2.656551 5.76101,3.839011 10.02097,3.839011 0.13808,0 1.48996,0.078 1.52896,0 1.65103,-3.302131 4.43077,-7.63158 5.04966,-12.012279 1.84753,-13.077531 -10.02088,-36.477233 -21.70065,-42.194704 -3.84199,-1.880727 -21.58316,-4.383175 -26.14702,-2.430042 -1.84836,0.79102 -5.31635,2.325087 -6.44648,4.016034 -0.75183,1.124905 -1.73681,6.532009 1.13832,4.921914 z"
           id="path4965-2" />
      </g>
      <g
         id="g6425-0"
         transform="translate(-329.56355,-1020.4357)">
        <ellipse
           style="fill:url(#radialGradient2894-2);fill-opacity:1;stroke:#fefefe;stroke-width:1.63698;stroke-linejoin:round;stroke-miterlimit:4;stroke-dasharray:none;stroke-opacity:1;paint-order:fill markers stroke"
           id="path2231-3-2"
           ry="82.731468"
           rx="70.094109"
           cy="101.47012"
           cx="123.51945" />
        <path
           style="fill:url(#radialGradient5101-9);fill-opacity:1;stroke:none;stroke-width:0.264583px;stroke-linecap:butt;stroke-linejoin:miter;stroke-opacity:1"
           d="m 129.97802,47.804009 c 0.87952,1.245814 1.57469,2.644843 2.63857,3.737445 4.39608,4.514771 7.44905,8.168955 11.01068,13.365798 3.49911,5.105609 5.87634,11.142853 9.72769,15.85678 1.46027,1.787327 16.09646,18.493558 16.30654,18.564371 1.49627,0.504364 5.55393,1.736647 7.10468,0.748357 3.71356,-2.366652 7.21254,-25.367312 5.67994,-28.695652 -0.30429,-0.660818 -1.06174,-1.052001 -1.33605,-1.725818 -0.76312,-1.874555 1.73212,-3.04132 1.23209,-4.717971 -0.14361,-0.481547 -0.95017,-0.456655 -1.22672,-0.876215 -0.90666,-1.375508 -0.87485,-3.833707 -1.55819,-5.41238 -3.31768,-7.664617 -7.20977,-15.29891 -16.01899,-16.258 -7.21704,-0.785744 -24.33145,-5.993705 -29.44154,1.696005 -0.89434,1.345801 -3.4545,1.251715 -4.1187,3.71728 z"
           id="path4967-3" />
      </g>
    </g>
  </g>
</svg>
