{
    "name": "Football",
    "author_nickname": "AndyB",
    "notes": "__FOOTBALL_NOTES__",
    "hint1": "Drop a block onto the right of the ball to make it go left.",
    "hint2": "",
    "hint3": "",
    "discussion_id": "62",
    "discussion_slug": "62-football",
    "highlight_notes": true,
    "effects": {},
    "zoom": {
        "x": 0,
        "y": 0,
        "w": 20
    },
    "shapes": [
        {
            "id": 2,
            "number": -1
        }
    ],
    "win_conditions": [
        {
            "bodyEnteredArea": [
                {
                    "RECT": [
                        {
                            "x": 4,
                            "y": 11
                        },
                        {
                            "x": 5,
                            "y": 16
                        }
                    ]
                },
                "main_car"
            ]
        }
    ],
    "lose_conditions": [
        {
            "bodyEnteredArea": [
                {
                    "RECT": [
                        {
                            "x": 15,
                            "y": 11
                        },
                        {
                            "x": 16,
                            "y": 16
                        }
                    ]
                },
                "main_car"
            ]
        },
        {
            "greaterThan": [
                "time",
                10000
            ]
        }
    ],
    "blocks": [
        {
            "static_block": {
                "x": 4,
                "y": 16,
                "w": 12,
                "h": 1
            }
        },
        {
            "static_block": {
                "x": 4,
                "y": 10,
                "w": 1,
                "h": 1
            }
        },
        {
            "static_block": {
                "x": 15,
                "y": 10,
                "w": 1,
                "h": 1
            }
        },
        {
            "shape_block": {
                "x": 11,
                "y": 7,
                "id": 2,
                "rotation": 0,
                "reflected": false
            }
        }
    ],
    "dynamic_objects": [
        {
            "bouncy": {
                "x": 11,
                "y": 14,
                "id": "main_car"
            }
        }
    ]
}
