{
    "name": "Double",
    "author_nickname": "Ray 'BLJ' Duck",
    "notes": "Stop the cars falling to their deaths! Avoid red zones.",
    "hint1": "You don't actually need the cars to move at all.",
    "hint2": "Try balancing blocks on the edge of the platforms.",
    "hint3": "Place blocks spanning the gap.",
    "discussion_id": "64",
    "discussion_slug": "64-double",
    "highlight_notes": false,
    "effects": {},
    "zoom": {
        "x": 0,
        "y": 0,
        "w": 20
    },
    "shapes": [
        {
            "id": 0,
            "number": -1
        },
        {
            "id": 1,
            "number": -1
        },
        {
            "id": 2,
            "number": -1
        }
    ],
    "win_conditions": [
        {
            "greaterThan": [
                "time",
                3000
            ]
        }
    ],
    "lose_conditions": [
        {
            "bodyEnteredArea": [
                {
                    "RECT": [
                        {
                            "x": 1,
                            "y": 11
                        },
                        {
                            "x": 19,
                            "y": 16
                        }
                    ]
                },
                "main_car"
            ]
        },
        {
            "bodyEnteredArea": [
                {
                    "RECT": [
                        {
                            "x": -5,
                            "y": 22
                        },
                        {
                            "x": 25,
                            "y": 23
                        }
                    ]
                },
                "1"
            ]
        }
    ],
    "blocks": [
        {
            "static_block": {
                "x": 1,
                "y": 9,
                "w": 6,
                "h": 2
            }
        },
        {
            "static_block": {
                "x": 13,
                "y": 9,
                "w": 6,
                "h": 2
            }
        }
    ],
    "dynamic_objects": [
        {
            "left_car": {
                "x": 16,
                "y": 7,
                "id": "1"
            }
        },
        {
            "simple_car": {
                "x": 4,
                "y": 7,
                "id": "main_car"
            }
        }
    ]
}
