{
    "name": "The floor is lava",
    "author_nickname": "AndyB",
    "notes": "Stop the anvil from falling in the lava!",
    "hint1": "Build more structures in the lava that prevent the anvil getting through.",
    "hint2": "Just build tonnes of stuff!",
    "hint3": "",
    "discussion_id": "67",
    "discussion_slug": "67-the-floor-is-lava",
    "highlight_notes": false,
    "effects": {},
    "zoom": {
        "x": 0,
        "y": 0,
        "w": 60
    },
    "shapes": [
        {
            "id": 0,
            "number": -1
        },
        {
            "id": 1,
            "number": -1
        },
        {
            "id": 3,
            "number": -1
        }
    ],
    "win_conditions": [
        {
            "greaterThan": [
                "time",
                5000
            ]
        }
    ],
    "lose_conditions": [
        {
            "bodyEnteredArea": [
                {
                    "RECT": [
                        {
                            "x": -10,
                            "y": 31
                        },
                        {
                            "x": 15,
                            "y": 34
                        }
                    ]
                },
                "main_car"
            ]
        }
    ],
    "blocks": [
        {
            "static_block": {
                "x": -20,
                "y": 34,
                "w": 61,
                "h": 6
            }
        },
        {
            "shape_block": {
                "x": 2,
                "y": 32,
                "id": 3,
                "rotation": 90,
                "reflected": false
            }
        },
        {
            "shape_block": {
                "x": 2,
                "y": 30,
                "id": 3,
                "rotation": 90,
                "reflected": false
            }
        },
        {
            "shape_block": {
                "x": 2,
                "y": 28,
                "id": 3,
                "rotation": 90,
                "reflected": false
            }
        },
        {
            "shape_block": {
                "x": 1,
                "y": 27,
                "id": 0,
                "rotation": 180,
                "reflected": false
            }
        },
        {
            "shape_block": {
                "x": 4,
                "y": 27,
                "id": 0,
                "rotation": 180,
                "reflected": true
            }
        },
        {
            "static_block": {
                "x": 15,
                "y": 31,
                "w": 2,
                "h": 3
            }
        },
        {
            "static_block": {
                "x": -12,
                "y": 31,
                "w": 2,
                "h": 3
            }
        }
    ],
    "dynamic_objects": [
        {
            "anvil": {
                "x": 3.8,
                "y": -8.7,
                "id": "main_car"
            }
        }
    ]
}
