{
    "name": "Shift",
    "author_nickname": "AndyB",
    "notes": "Can you move the tower sideways?",
    "hint1": "Drop a right-balanced blob of heavy stuff onto a pivot on the left of  the ground.",
    "hint2": "Experiment with different pivots and weight distributions and you should get there in the end.",
    "hint3": "",
    "discussion_id": "73",
    "discussion_slug": "73-shift",
    "highlight_notes": false,
    "effects": {},
    "zoom": {
        "x": 0,
        "y": 0,
        "w": 20
    },
    "shapes": [
        {
            "id": 0,
            "number": -1
        },
        {
            "id": 1,
            "number": -1
        },
        {
            "id": 2,
            "number": -1
        },
        {
            "id": 3,
            "number": -1
        },
        {
            "id": 4,
            "number": -1
        }
    ],
    "win_conditions": [
        {
            "bodyEnteredArea": [
                {
                    "RECT": [
                        {
                            "x": 15,
                            "y": 8
                        },
                        {
                            "x": 17,
                            "y": 10
                        }
                    ]
                },
                "main_car"
            ]
        }
    ],
    "lose_conditions": [
        {
            "greaterThan": [
                "time",
                5000
            ]
        }
    ],
    "blocks": [
        {
            "static_block": {
                "x": 6,
                "y": 16,
                "w": 8,
                "h": 2
            }
        },
        {
            "shape_block": {
                "x": 9,
                "y": 14,
                "id": 2,
                "rotation": 0,
                "reflected": false
            }
        },
        {
            "shape_block": {
                "x": 9,
                "y": 12,
                "id": 2,
                "rotation": 0,
                "reflected": false
            }
        },
        {
            "shape_block": {
                "x": 9,
                "y": 10,
                "id": 2,
                "rotation": 0,
                "reflected": false
            }
        },
        {
            "shape_block": {
                "x": 7,
                "y": 1,
                "id": 0,
                "rotation": 180,
                "reflected": false
            }
        },
        {
            "shape_block": {
                "x": 7,
                "y": 2,
                "id": 2,
                "rotation": 0,
                "reflected": false
            }
        },
        {
            "shape_block": {
                "x": 7,
                "y": 4,
                "id": 2,
                "rotation": 0,
                "reflected": false
            }
        },
        {
            "shape_block": {
                "x": 5,
                "y": 15,
                "id": 1,
                "rotation": 0,
                "reflected": false
            }
        },
        {
            "shape_block": {
                "x": 5,
                "y": 18,
                "id": 1,
                "rotation": 180,
                "reflected": false
            }
        },
        {
            "shape_block": {
                "x": 5,
                "y": 4,
                "id": 0,
                "rotation": 0,
                "reflected": false
            }
        },
        {
            "shape_block": {
                "x": 5,
                "y": 2,
                "id": 2,
                "rotation": 0,
                "reflected": false
            }
        },
        {
            "shape_block": {
                "x": 6,
                "y": 14,
                "id": 4,
                "rotation": 0,
                "reflected": false
            }
        },
        {
            "shape_block": {
                "x": 6,
                "y": 13,
                "id": 4,
                "rotation": 0,
                "reflected": false
            }
        }
    ],
    "dynamic_objects": [
        {
            "box": {
                "x": 10,
                "y": 9,
                "id": "main_car"
            }
        }
    ]
}
