{
    "name": "Demolition Pro",
    "author_nickname": "AndyB",
    "notes": "Attempting a demolition in a dangerous situation!",
    "hint1": "Smack the top of the box with a precision strike.",
    "hint2": "Drop a weight with a slope block sticking out underneath onto the box.",
    "discussion_id": "76",
    "discussion_slug": "76-demolition-pro",
    "effects": {},
    "shapes": [
        {
            "id": 0,
            "number": -1
        },
        {
            "id": 1,
            "number": -1
        },
        {
            "id": 2,
            "number": -1
        },
        {
            "id": 3,
            "number": -1
        },
        {
            "id": 4,
            "number": -1
        }
    ],
    "win_conditions": [
        {
            "bodyEnteredArea": [
                {
                    "RECT": [
                        {
                            "x": 6,
                            "y": 14
                        },
                        {
                            "x": 14,
                            "y": 16
                        }
                    ]
                },
                "main_car"
            ]
        }
    ],
    "lose_conditions": [],
    "blocks": [
        {
            "static_block": {
                "x": 6,
                "y": 16,
                "w": 8,
                "h": 2
            }
        },
        {
            "shape_block": {
                "x": 9,
                "y": 14,
                "id": 2,
                "rotation": 0,
                "reflected": false
            }
        },
        {
            "shape_block": {
                "x": 9,
                "y": 12,
                "id": 2,
                "rotation": 0,
                "reflected": false
            }
        },
        {
            "shape_block": {
                "x": 9,
                "y": 10,
                "id": 2,
                "rotation": 0,
                "reflected": false
            }
        },
        {
            "shape_block": {
                "x": 8,
                "y": -1,
                "id": 2,
                "rotation": 0,
                "reflected": false
            }
        },
        {
            "shape_block": {
                "x": 10,
                "y": 1,
                "id": 4,
                "rotation": 90,
                "reflected": false
            }
        },
        {
            "shape_block": {
                "x": 10,
                "y": -1,
                "id": 3,
                "rotation": 90,
                "reflected": false
            }
        }
    ],
    "dynamic_objects": [
        {
            "box": {
                "x": 10,
                "y": 9,
                "id": "main_car"
            }
        }
    ]
}
